module github.com/go-gin-clean-architecture

go 1.19

require (
	github.com/gin-gonic/gin v1.9.1
	github.com/golang-jwt/jwt v3.2.2+incompatible
	github.com/google/uuid v1.3.1
	github.com/mergermarket/go-pkcs7 v0.0.0-20170926155232-153b18ea13c9
	github.com/rs/cors/wrapper/gin v0.0.0-20230929213613-e19471c92b1c
	github.com/spf13/viper v1.17.0
	go.elastic.co/ecszap v1.0.2
	go.uber.org/fx v1.20.0
	go.uber.org/zap v1.26.0
	golang.org/x/crypto v0.14.0
	gopkg.in/natefinch/lumberjack.v2 v2.2.1
	gorm.io/driver/postgres v1.5.3
	gorm.io/gorm v1.25.5
)

require (
	github.com/KyleBanks/depth v1.2.1 // indirect
	github.com/PuerkitoBio/purell v1.2.0 // indirect
	github.com/PuerkitoBio/urlesc v0.0.0-20170810143723-de5bf2ad4578 // indirect
	github.com/bytedance/sonic v1.10.2 // indirect
	github.com/chenzhuoyu/base64x v0.0.0-20230717121745-296ad89f973d // indirect
	github.com/chenzhuoyu/iasm v0.9.0 // indirect
	github.com/fsnotify/fsnotify v1.6.0 // indirect
	github.com/gabriel-vasile/mimetype v1.4.3 // indirect
	github.com/gin-contrib/sse v0.1.0 // indirect
	github.com/go-openapi/jsonpointer v0.20.0 // indirect
	github.com/go-openapi/jsonreference v0.20.2 // indirect
	github.com/go-openapi/spec v0.20.9 // indirect
	github.com/go-openapi/swag v0.22.4 // indirect
	github.com/go-playground/locales v0.14.1 // indirect
	github.com/go-playground/universal-translator v0.18.1 // indirect
	github.com/go-playground/validator/v10 v10.15.5 // indirect
	github.com/goccy/go-json v0.10.2 // indirect
	github.com/hashicorp/hcl v1.0.0 // indirect
	github.com/jackc/pgpassfile v1.0.0 // indirect
	github.com/jackc/pgservicefile v0.0.0-20221227161230-091c0ba34f0a // indirect
	github.com/jackc/pgx/v5 v5.4.3 // indirect
	github.com/jinzhu/inflection v1.0.0 // indirect
	github.com/jinzhu/now v1.1.5 // indirect
	github.com/josharian/intern v1.0.0 // indirect
	github.com/json-iterator/go v1.1.12 // indirect
	github.com/klauspost/cpuid/v2 v2.2.5 // indirect
	github.com/leodido/go-urn v1.2.4 // indirect
	github.com/magiconair/properties v1.8.7 // indirect
	github.com/mailru/easyjson v0.7.7 // indirect
	github.com/mattn/go-isatty v0.0.20 // indirect
	github.com/mitchellh/mapstructure v1.5.0 // indirect
	github.com/modern-go/concurrent v0.0.0-20180306012644-bacd9c7ef1dd // indirect
	github.com/modern-go/reflect2 v1.0.2 // indirect
	github.com/pelletier/go-toml/v2 v2.1.0 // indirect
	github.com/pkg/errors v0.9.1 // indirect
	github.com/rs/cors v1.8.1 // indirect
	github.com/sagikazarmark/locafero v0.3.0 // indirect
	github.com/sagikazarmark/slog-shim v0.1.0 // indirect
	github.com/sourcegraph/conc v0.3.0 // indirect
	github.com/spf13/afero v1.10.0 // indirect
	github.com/spf13/cast v1.5.1 // indirect
	github.com/spf13/pflag v1.0.5 // indirect
	github.com/subosito/gotenv v1.6.0 // indirect
	github.com/swaggo/files v1.0.1 // indirect
	github.com/swaggo/gin-swagger v1.6.0 // indirect
	github.com/swaggo/swag v1.16.2 // indirect
	github.com/twitchyliquid64/golang-asm v0.15.1 // indirect
	github.com/ugorji/go/codec v1.2.11 // indirect
	go.uber.org/dig v1.17.0 // indirect
	go.uber.org/multierr v1.10.0 // indirect
	golang.org/x/arch v0.5.0 // indirect
	golang.org/x/exp v0.0.0-20230905200255-921286631fa9 // indirect
	golang.org/x/net v0.17.0 // indirect
	golang.org/x/sys v0.13.0 // indirect
	golang.org/x/text v0.13.0 // indirect
	golang.org/x/tools v0.14.0 // indirect
	google.golang.org/protobuf v1.31.0 // indirect
	gopkg.in/ini.v1 v1.67.0 // indirect
	gopkg.in/yaml.v2 v2.4.0 // indirect
	gopkg.in/yaml.v3 v3.0.1 // indirect
)
