{
    "schemes": [
        "http",
        "https"
    ],
    "swagger": "2.0",
    "info": {
        "description": "API documentation for GO GIN application",
        "title": "Go Gin Clean Architecture",
        "termsOfService": "http://swagger.io/terms/",
        "contact": {
            "name": "API Support",
            "email": "support@swagger.io"
        },
        "license": {
            "name": "Apache 2.0",
            "url": "http://www.apache.org/licenses/LICENSE-2.0.html"
        },
        "version": "1.0.0"
    },
    "basePath": "/dev/api/v1/go-gin-clean",
    "paths": {
        "/login": {
            "post": {
                "description": "Takes a create token. Return saved JSON.",
                "consumes": [
                    "application/json"
                ],
                "produces": [
                    "application/json"
                ],
                "tags": [
                    "Authenticate user"
                ],
                "summary": "authenticate user",
                "parameters": [
                    {
                        "description": "Request Body",
                        "name": "data",
                        "in": "body",
                        "required": true,
                        "schema": {
                            "$ref": "#/definitions/criteria.AuthCriteria"
                        }
                    }
                ],
                "responses": {
                    "200": {
                        "description": "OK",
                        "schema": {
                            "$ref": "#/definitions/response.ResponseData"
                        }
                    }
                }
            }
        },
        "/role": {
            "get": {
                "security": [
                    {
                        "Bearer": []
                    }
                ],
                "description": "Get all exists role.",
                "consumes": [
                    "application/json"
                ],
                "produces": [
                    "application/json"
                ],
                "tags": [
                    "Role"
                ],
                "summary": "get all exists role",
                "responses": {
                    "200": {
                        "description": "OK",
                        "schema": {
                            "$ref": "#/definitions/response.ResponseData"
                        }
                    }
                }
            }
        },
        "/role/create": {
            "post": {
                "security": [
                    {
                        "JWT": []
                    }
                ],
                "description": "create Role.",
                "consumes": [
                    "application/json"
                ],
                "produces": [
                    "application/json"
                ],
                "tags": [
                    "Role"
                ],
                "summary": "create Role",
                "parameters": [
                    {
                        "description": "Request Body",
                        "name": "request",
                        "in": "body",
                        "required": true,
                        "schema": {
                            "$ref": "#/definitions/criteria.StoreRoleCriteria"
                        }
                    }
                ],
                "responses": {
                    "200": {
                        "description": "OK",
                        "schema": {
                            "$ref": "#/definitions/response.ResponseData"
                        }
                    }
                }
            }
        },
        "/role/getDataById/{id}": {
            "get": {
                "security": [
                    {
                        "JWT": []
                    }
                ],
                "description": "Get one exists role.",
                "consumes": [
                    "application/json"
                ],
                "produces": [
                    "application/json"
                ],
                "tags": [
                    "Role"
                ],
                "summary": "get one exists role",
                "parameters": [
                    {
                        "type": "string",
                        "description": "Role Id",
                        "name": "id",
                        "in": "path",
                        "required": true
                    }
                ],
                "responses": {
                    "200": {
                        "description": "OK",
                        "schema": {
                            "$ref": "#/definitions/response.ResponseData"
                        }
                    }
                }
            }
        },
        "/role/update": {
            "post": {
                "security": [
                    {
                        "JWT": []
                    }
                ],
                "description": "update Role.",
                "consumes": [
                    "application/json"
                ],
                "produces": [
                    "application/json"
                ],
                "tags": [
                    "Role"
                ],
                "summary": "update Role",
                "parameters": [
                    {
                        "description": "Request Body",
                        "name": "request",
                        "in": "body",
                        "required": true,
                        "schema": {
                            "$ref": "#/definitions/criteria.UpdateRoleCriteria"
                        }
                    }
                ],
                "responses": {
                    "200": {
                        "description": "OK",
                        "schema": {
                            "$ref": "#/definitions/response.ResponseData"
                        }
                    }
                }
            }
        },
        "/role/updateIsActive": {
            "post": {
                "security": [
                    {
                        "JWT": []
                    }
                ],
                "description": "update isActive Role.",
                "consumes": [
                    "application/json"
                ],
                "produces": [
                    "application/json"
                ],
                "tags": [
                    "Role"
                ],
                "summary": "update isActive Role",
                "parameters": [
                    {
                        "description": "Request Body",
                        "name": "request",
                        "in": "body",
                        "required": true,
                        "schema": {
                            "$ref": "#/definitions/criteria.UpdateIsActiveRoleCriteria"
                        }
                    }
                ],
                "responses": {
                    "200": {
                        "description": "OK",
                        "schema": {
                            "$ref": "#/definitions/response.ResponseData"
                        }
                    }
                }
            }
        },
        "/user": {
            "get": {
                "security": [
                    {
                        "JWT": []
                    }
                ],
                "description": "Get all exists user.",
                "consumes": [
                    "application/json"
                ],
                "produces": [
                    "application/json"
                ],
                "tags": [
                    "User"
                ],
                "summary": "get all exists user",
                "responses": {
                    "200": {
                        "description": "OK",
                        "schema": {
                            "$ref": "#/definitions/response.ResponseData"
                        }
                    }
                }
            }
        },
        "/user/create": {
            "post": {
                "security": [
                    {
                        "JWT": []
                    }
                ],
                "description": "create User.",
                "consumes": [
                    "application/json"
                ],
                "produces": [
                    "application/json"
                ],
                "tags": [
                    "User"
                ],
                "summary": "create User",
                "parameters": [
                    {
                        "description": "Request Body",
                        "name": "request",
                        "in": "body",
                        "required": true,
                        "schema": {
                            "$ref": "#/definitions/criteria.StoreUserCriteria"
                        }
                    }
                ],
                "responses": {
                    "200": {
                        "description": "OK",
                        "schema": {
                            "$ref": "#/definitions/response.ResponseData"
                        }
                    }
                }
            }
        },
        "/user/getAllDataUserByParam": {
            "post": {
                "security": [
                    {
                        "JWT": []
                    }
                ],
                "description": "Get all exists user by param.",
                "consumes": [
                    "application/json"
                ],
                "produces": [
                    "application/json"
                ],
                "tags": [
                    "User"
                ],
                "summary": "get all exists user by param",
                "parameters": [
                    {
                        "description": "Request Body",
                        "name": "request",
                        "in": "body",
                        "required": true,
                        "schema": {
                            "$ref": "#/definitions/criteria.UserSearchCriteria"
                        }
                    }
                ],
                "responses": {
                    "200": {
                        "description": "OK",
                        "schema": {
                            "$ref": "#/definitions/response.ResponseData"
                        }
                    }
                }
            }
        },
        "/user/getDataById/{id}": {
            "get": {
                "security": [
                    {
                        "JWT": []
                    }
                ],
                "description": "Get one exists user.",
                "consumes": [
                    "application/json"
                ],
                "produces": [
                    "application/json"
                ],
                "tags": [
                    "User"
                ],
                "summary": "get one exists user",
                "parameters": [
                    {
                        "type": "string",
                        "description": "User Id",
                        "name": "id",
                        "in": "path",
                        "required": true
                    }
                ],
                "responses": {
                    "200": {
                        "description": "OK",
                        "schema": {
                            "$ref": "#/definitions/response.ResponseData"
                        }
                    }
                }
            }
        },
        "/user/update": {
            "post": {
                "security": [
                    {
                        "JWT": []
                    }
                ],
                "description": "update User.",
                "consumes": [
                    "application/json"
                ],
                "produces": [
                    "application/json"
                ],
                "tags": [
                    "User"
                ],
                "summary": "update User",
                "parameters": [
                    {
                        "description": "Request Body",
                        "name": "request",
                        "in": "body",
                        "required": true,
                        "schema": {
                            "$ref": "#/definitions/criteria.UpdateUserCriteria"
                        }
                    }
                ],
                "responses": {
                    "200": {
                        "description": "OK",
                        "schema": {
                            "$ref": "#/definitions/response.ResponseData"
                        }
                    }
                }
            }
        },
        "/user/updateIsActive": {
            "post": {
                "security": [
                    {
                        "JWT": []
                    }
                ],
                "description": "update isActive User.",
                "consumes": [
                    "application/json"
                ],
                "produces": [
                    "application/json"
                ],
                "tags": [
                    "User"
                ],
                "summary": "update isActive User",
                "parameters": [
                    {
                        "description": "Request Body",
                        "name": "request",
                        "in": "body",
                        "required": true,
                        "schema": {
                            "$ref": "#/definitions/criteria.UpdateIsActiveUserCriteria"
                        }
                    }
                ],
                "responses": {
                    "200": {
                        "description": "OK",
                        "schema": {
                            "$ref": "#/definitions/response.ResponseData"
                        }
                    }
                }
            }
        }
    },
    "definitions": {
        "criteria.AuthCriteria": {
            "type": "object",
            "required": [
                "password",
                "username"
            ],
            "properties": {
                "password": {
                    "type": "string"
                },
                "username": {
                    "type": "string"
                }
            }
        },
        "criteria.StoreRoleCriteria": {
            "type": "object",
            "required": [
                "createdBy",
                "description",
                "roleName"
            ],
            "properties": {
                "createdBy": {
                    "type": "string"
                },
                "description": {
                    "type": "string"
                },
                "roleName": {
                    "type": "string"
                }
            }
        },
        "criteria.StoreUserCriteria": {
            "type": "object",
            "required": [
                "address",
                "createdBy",
                "email",
                "fullname",
                "hpNumber",
                "idMasterRoles",
                "isGender",
                "username"
            ],
            "properties": {
                "address": {
                    "type": "string"
                },
                "createdBy": {
                    "type": "string"
                },
                "email": {
                    "type": "string"
                },
                "fullname": {
                    "type": "string"
                },
                "hpNumber": {
                    "type": "string"
                },
                "idMasterRoles": {
                    "type": "string"
                },
                "isGender": {
                    "type": "string"
                },
                "username": {
                    "type": "string"
                }
            }
        },
        "criteria.UpdateIsActiveRoleCriteria": {
            "type": "object",
            "required": [
                "idMasterRoles",
                "isActive",
                "updatedBy"
            ],
            "properties": {
                "idMasterRoles": {
                    "type": "string"
                },
                "isActive": {
                    "type": "string"
                },
                "updatedBy": {
                    "type": "string"
                }
            }
        },
        "criteria.UpdateIsActiveUserCriteria": {
            "type": "object",
            "required": [
                "idMasterUsers",
                "isActive",
                "updatedBy"
            ],
            "properties": {
                "idMasterUsers": {
                    "type": "string"
                },
                "isActive": {
                    "type": "string"
                },
                "updatedBy": {
                    "type": "string"
                }
            }
        },
        "criteria.UpdateRoleCriteria": {
            "type": "object",
            "required": [
                "description",
                "idMasterRoles",
                "roleName",
                "updatedBy"
            ],
            "properties": {
                "description": {
                    "type": "string"
                },
                "idMasterRoles": {
                    "type": "string"
                },
                "roleName": {
                    "type": "string"
                },
                "updatedBy": {
                    "type": "string"
                }
            }
        },
        "criteria.UpdateUserCriteria": {
            "type": "object",
            "required": [
                "address",
                "email",
                "fullname",
                "hpNumber",
                "idMasterRoles",
                "idMasterUsers",
                "isGender",
                "updatedBy",
                "username"
            ],
            "properties": {
                "address": {
                    "type": "string"
                },
                "email": {
                    "type": "string"
                },
                "fullname": {
                    "type": "string"
                },
                "hpNumber": {
                    "type": "string"
                },
                "idMasterRoles": {
                    "type": "string"
                },
                "idMasterUsers": {
                    "type": "string"
                },
                "isGender": {
                    "type": "string"
                },
                "updatedBy": {
                    "type": "string"
                },
                "username": {
                    "type": "string"
                }
            }
        },
        "criteria.UserSearchCriteria": {
            "type": "object",
            "required": [
                "key",
                "value"
            ],
            "properties": {
                "key": {
                    "type": "string"
                },
                "value": {
                    "type": "string"
                }
            }
        },
        "response.ResponseData": {
            "type": "object",
            "properties": {
                "responseCode": {
                    "type": "integer"
                },
                "responseDatas": {},
                "responseDescription": {
                    "type": "string"
                },
                "responseTime": {
                    "type": "string"
                }
            }
        }
    },
    "securityDefinitions": {
        "Bearer": {
            "description": "Provide a Bearer token to authenticate your requests.",
            "type": "apiKey",
            "name": "Authorization",
            "in": "header"
        }
    }
}